centroid_threshold,centroid_weight,position_weight,first_sent_olap_weight,title_olap_weight,Rouge1-R,Rouge2-R
10,0.2,0.5,0.3,0.0,0.25902,0.07848
9,0.4,0.0,0.2,0.4,0.26652,0.08296
10,0.6,0.0,0.4,0.0,0.28309,0.09009
7,0.0,0.0,0.4,0.6,0.27428,0.08910
7,0.0,0.5,0.1,0.4,0.26938,0.07986
11,0.0,0.0,0.8,0.2,0.27167,0.08780
7,0.4,0.25,0.35,0.0,0.26662,0.07762
11,0.0,0.5,0.3,0.2,0.26996,0.08466
9,0.2,0.25,0.55,0.0,0.26432,0.08373
9,0.0,0.5,0.1,0.4,0.26842,0.08030
7,0.2,0.5,0.1,0.2,0.27276,0.07988
7,0.8,0.0,0.0,0.2,0.24582,0.06609
9,0.0,0.0,0.2,0.8,0.26351,0.07985
12,0.0,0.0,0.0,1.0,0.24603,0.07100
11,0.4,0.25,0.35,0.0,0.27633,0.08672
7,0.4,0.0,0.6,0.0,0.27473,0.08668
9,0.0,0.5,0.5,0.0,0.24837,0.07636
10,0.2,0.75,0.05,0.0,0.25913,0.07790
11,0.0,0.0,0.0,1.0,0.23832,0.06783
9,0.0,0.0,0.4,0.6,0.27551,0.08961
10,0.4,0.0,0.4,0.2,0.28420,0.09073
12,0.0,0.5,0.3,0.2,0.27473,0.08676
7,0.4,0.0,0.4,0.2,0.28685,0.09126
11,0.0,0.25,0.75,0.0,0.25208,0.07763
7,0.2,0.25,0.35,0.2,0.28096,0.08940
10,0.6,0.0,0.0,0.4,0.24573,0.06468
11,0.0,0.25,0.15,0.6,0.27983,0.08654
11,0.2,0.5,0.1,0.2,0.27358,0.08039
9,0.0,0.75,0.05,0.2,0.25251,0.07536
12,0.4,0.25,0.35,0.0,0.27633,0.08735
7,1.0,0.0,0.0,0.0,0.25602,0.06902
11,0.0,0.0,1.0,0.0,0.26042,0.07989
11,0.0,0.75,0.05,0.2,0.25744,0.07602
7,0.2,0.0,0.4,0.4,0.28644,0.09263
7,0.0,0.0,0.8,0.2,0.27156,0.08791
11,0.0,0.25,0.55,0.2,0.26693,0.08405
7,0.2,0.25,0.15,0.4,0.27341,0.08289
10,0.8,0.0,0.0,0.2,0.24812,0.06700
9,0.4,0.25,0.15,0.2,0.27806,0.08397
11,0.2,0.0,0.0,0.8,0.23363,0.06346
12,0.0,0.75,0.25,0.0,0.24500,0.07450
10,0.2,0.25,0.35,0.2,0.28646,0.09211
10,0.2,0.25,0.55,0.0,0.26610,0.08567
7,0.0,0.25,0.35,0.4,0.28282,0.09148
7,0.2,0.25,0.55,0.0,0.26137,0.08050
9,0.0,0.0,0.8,0.2,0.26998,0.08724
12,0.0,0.0,0.2,0.8,0.26386,0.07992
10,0.4,0.0,0.6,0.0,0.27605,0.08648
9,0.0,0.75,0.25,0.0,0.24390,0.07310
7,0.6,0.0,0.0,0.4,0.24786,0.06613
10,0.0,0.5,0.5,0.0,0.25362,0.07884
12,0.2,0.0,0.6,0.2,0.27758,0.09003
7,0.0,0.0,1.0,0.0,0.26072,0.07999
10,1.0,0.0,0.0,0.0,0.24903,0.06883
12,0.0,0.25,0.75,0.0,0.25531,0.08051
11,0.2,0.5,0.3,0.0,0.26509,0.08111
12,0.2,0.0,0.0,0.8,0.23617,0.06554
11,0.2,0.25,0.15,0.4,0.27759,0.08617
9,0.0,0.25,0.15,0.6,0.27967,0.08625
9,0.2,0.0,0.6,0.2,0.27531,0.08817
9,0.0,0.25,0.75,0.0,0.25378,0.07858
12,0.6,0.25,0.15,0.0,0.27722,0.08402
12,0.2,0.5,0.3,0.0,0.26358,0.08089
12,0.2,0.25,0.35,0.2,0.28359,0.09092
9,0.2,0.75,0.05,0.0,0.25082,0.07287
11,0.0,0.25,0.35,0.4,0.28340,0.09125
7,0.6,0.0,0.4,0.0,0.28050,0.08859
10,0.0,0.75,0.05,0.2,0.25483,0.07611
9,0.0,0.0,0.0,1.0,0.23885,0.06923
9,0.2,0.0,0.2,0.6,0.26384,0.08400
10,0.6,0.25,0.15,0.0,0.27915,0.08592
10,0.0,0.0,0.8,0.2,0.27019,0.08724
12,0.0,0.0,1.0,0.0,0.25774,0.07921
9,0.6,0.0,0.0,0.4,0.24585,0.06494
7,0.2,0.0,0.8,0.0,0.26749,0.08505
12,0.6,0.0,0.2,0.2,0.27244,0.08298
12,0.2,0.75,0.05,0.0,0.26526,0.08107
10,0.2,0.25,0.15,0.4,0.27640,0.08822
9,0.6,0.0,0.4,0.0,0.28251,0.08899
7,0.2,0.0,0.0,0.8,0.23688,0.06299
10,0.0,1.0,0.0,0.0,0.21978,0.05989
10,0.4,0.25,0.35,0.0,0.27614,0.08673
7,0.0,0.5,0.3,0.2,0.27168,0.08369
9,0.4,0.5,0.1,0.0,0.26781,0.07936
11,0.4,0.0,0.4,0.2,0.28599,0.09155
9,0.0,0.5,0.3,0.2,0.27171,0.08465
11,0.2,0.75,0.05,0.0,0.25716,0.07628
12,0.4,0.0,0.0,0.6,0.24021,0.06485
9,0.2,0.25,0.35,0.2,0.28938,0.09349
7,0.2,0.0,0.6,0.2,0.27549,0.08865
11,0.4,0.5,0.1,0.0,0.27463,0.08357
12,0.8,0.0,0.2,0.0,0.26294,0.07660
12,0.4,0.0,0.6,0.0,0.27784,0.08786
10,0.6,0.0,0.2,0.2,0.26471,0.08035
10,0.0,0.5,0.1,0.4,0.27152,0.08366
12,0.0,0.0,0.8,0.2,0.26988,0.08734
7,0.0,0.25,0.15,0.6,0.27945,0.08654
11,0.2,0.0,0.8,0.0,0.26491,0.08426
7,0.2,0.0,0.2,0.6,0.26747,0.08578
9,0.0,0.0,1.0,0.0,0.25734,0.07910
7,0.4,0.25,0.15,0.2,0.27876,0.08337
11,0.4,0.25,0.15,0.2,0.27505,0.08149
11,0.0,0.5,0.1,0.4,0.27118,0.08330
10,0.8,0.0,0.2,0.0,0.26086,0.07651
9,0.6,0.0,0.2,0.2,0.26808,0.08190
7,0.0,0.0,0.0,1.0,0.22985,0.06354
9,0.0,0.0,0.6,0.4,0.28103,0.09039
11,0.0,0.0,0.6,0.4,0.28093,0.09039
12,0.0,0.5,0.5,0.0,0.25517,0.07848
7,0.4,0.5,0.1,0.0,0.26773,0.07689
7,0.0,0.0,0.6,0.4,0.27924,0.08982
7,0.0,0.75,0.25,0.0,0.24157,0.07036
10,0.0,0.25,0.55,0.2,0.26662,0.08415
11,0.4,0.0,0.0,0.6,0.23559,0.06192
7,0.0,1.0,0.0,0.0,0.22251,0.06065
11,1.0,0.0,0.0,0.0,0.24856,0.06656
10,0.0,0.5,0.3,0.2,0.27038,0.08426
9,0.4,0.0,0.6,0.0,0.27764,0.08702
9,1.0,0.0,0.0,0.0,0.24528,0.06650
11,0.2,0.0,0.4,0.4,0.28509,0.09202
7,0.2,0.75,0.05,0.0,0.25319,0.07551
12,0.4,0.0,0.4,0.2,0.28675,0.09217
10,0.2,0.0,0.2,0.6,0.26394,0.08454
11,0.0,0.0,0.4,0.6,0.27611,0.08961
9,0.2,0.0,0.4,0.4,0.28470,0.09234
7,0.0,0.75,0.05,0.2,0.24879,0.07287
11,0.2,0.0,0.2,0.6,0.26495,0.08464
12,0.0,0.0,0.6,0.4,0.28029,0.09004
10,0.2,0.0,0.6,0.2,0.27922,0.09022
11,0.8,0.0,0.2,0.0,0.26077,0.07538
10,0.2,0.5,0.1,0.2,0.27200,0.07997
7,0.4,0.0,0.2,0.4,0.26174,0.08003
12,0.2,0.0,0.2,0.6,0.26589,0.08545
10,0.4,0.0,0.0,0.6,0.23990,0.06229
11,0.2,0.25,0.35,0.2,0.28818,0.09315
10,0.4,0.0,0.2,0.4,0.26383,0.08276
11,0.6,0.0,0.4,0.0,0.28677,0.09156
12,0.4,0.25,0.15,0.2,0.27970,0.08360
10,0.0,0.0,0.2,0.8,0.26307,0.07962
9,0.2,0.25,0.15,0.4,0.27665,0.08529
10,0.0,0.25,0.75,0.0,0.25218,0.07752
7,0.0,0.25,0.75,0.0,0.25121,0.07718
12,1.0,0.0,0.0,0.0,0.24186,0.06265
12,0.0,0.75,0.05,0.2,0.25883,0.07765
12,0.2,0.0,0.8,0.0,0.26844,0.08631
9,0.4,0.25,0.35,0.0,0.27162,0.08260
9,0.2,0.5,0.1,0.2,0.27097,0.08007
9,0.4,0.0,0.0,0.6,0.23937,0.06229
11,0.2,0.0,0.6,0.2,0.27912,0.09032
11,0.2,0.25,0.55,0.0,0.26764,0.08609
10,0.4,0.25,0.15,0.2,0.27426,0.08193
11,0.0,0.0,0.2,0.8,0.26279,0.08006
11,0.4,0.0,0.6,0.0,0.27151,0.08527
7,0.6,0.25,0.15,0.0,0.27729,0.08114
9,0.6,0.25,0.15,0.0,0.27556,0.08193
11,0.0,0.5,0.5,0.0,0.25465,0.07913
12,0.0,0.25,0.35,0.4,0.28419,0.09198
11,0.8,0.0,0.0,0.2,0.24549,0.06396
12,0.0,0.25,0.15,0.6,0.27693,0.08462
9,0.0,0.25,0.55,0.2,0.26627,0.08396
12,0.4,0.0,0.2,0.4,0.26867,0.08425
12,0.6,0.0,0.4,0.0,0.28698,0.09255
11,0.0,1.0,0.0,0.0,0.22593,0.06191
10,0.0,0.0,0.6,0.4,0.28082,0.09028
10,0.0,0.0,0.4,0.6,0.27548,0.08939
10,0.0,0.25,0.15,0.6,0.27954,0.08624
9,0.4,0.0,0.4,0.2,0.28542,0.09098
7,0.6,0.0,0.2,0.2,0.27073,0.08305
11,0.6,0.25,0.15,0.0,0.27224,0.08296
10,0.0,0.75,0.25,0.0,0.24349,0.07403
12,0.8,0.0,0.0,0.2,0.24698,0.06653
7,0.8,0.0,0.2,0.0,0.26292,0.07698
10,0.0,0.0,1.0,0.0,0.25983,0.07957
12,0.2,0.0,0.4,0.4,0.28514,0.09245
10,0.4,0.5,0.1,0.0,0.27455,0.08422
12,0.0,1.0,0.0,0.0,0.23067,0.06449
11,0.6,0.0,0.0,0.4,0.24053,0.06245
12,0.2,0.25,0.15,0.4,0.27804,0.08511
12,0.6,0.0,0.0,0.4,0.24073,0.06419
10,0.2,0.0,0.4,0.4,0.28492,0.09174
7,0.2,0.5,0.3,0.0,0.25606,0.07710
10,0.2,0.0,0.8,0.0,0.26995,0.08716
11,0.4,0.0,0.2,0.4,0.26725,0.08356
10,0.0,0.25,0.35,0.4,0.28361,0.09125
11,0.6,0.0,0.2,0.2,0.26535,0.08092
9,0.2,0.0,0.8,0.0,0.26673,0.08539
12,0.0,0.5,0.1,0.4,0.27432,0.08567
12,0.4,0.5,0.1,0.0,0.27551,0.08447
12,0.2,0.5,0.1,0.2,0.27808,0.08245
12,0.0,0.0,0.4,0.6,0.27551,0.08961
11,0.0,0.75,0.25,0.0,0.25026,0.07854
7,0.0,0.25,0.55,0.2,0.26558,0.08300
10,0.2,0.0,0.0,0.8,0.23514,0.06348
9,0.2,0.5,0.3,0.0,0.25779,0.07687
9,0.0,1.0,0.0,0.0,0.21968,0.05962
12,0.2,0.25,0.55,0.0,0.26734,0.08620
9,0.2,0.0,0.0,0.8,0.23618,0.06291
9,0.0,0.25,0.35,0.4,0.28520,0.09217
7,0.4,0.0,0.0,0.6,0.23924,0.06137
9,0.8,0.0,0.0,0.2,0.24768,0.06695
10,0.0,0.0,0.0,1.0,0.23462,0.06771
12,0.0,0.25,0.55,0.2,0.26946,0.08497
7,0.0,0.5,0.5,0.0,0.25117,0.07532
9,0.8,0.0,0.2,0.0,0.26256,0.07628
7,0.0,0.0,0.2,0.8,0.26249,0.07944
