---------------------------------------------
1 ROUGE-1 Average_R: 0.26315 (95%-conf.int. 0.24451 - 0.28173)
1 ROUGE-1 Average_P: 0.27834 (95%-conf.int. 0.26033 - 0.29705)
1 ROUGE-1 Average_F: 0.26989 (95%-conf.int. 0.25212 - 0.28815)
.............................................
1 ROUGE-1 Eval D1001-A.M.100.A.1 R:0.33745 P:0.37273 F:0.35421
1 ROUGE-1 Eval D1002-A.M.100.A.1 R:0.19247 P:0.23958 F:0.21346
1 ROUGE-1 Eval D1003-A.M.100.A.1 R:0.20346 P:0.21364 F:0.20843
1 ROUGE-1 Eval D1004-A.M.100.A.1 R:0.31405 P:0.32759 F:0.32068
1 ROUGE-1 Eval D1005-A.M.100.A.1 R:0.26230 P:0.34783 F:0.29907
1 ROUGE-1 Eval D1006-A.M.100.A.1 R:0.29885 P:0.34821 F:0.32165
1 ROUGE-1 Eval D1007-A.M.100.B.1 R:0.24889 P:0.25000 F:0.24944
1 ROUGE-1 Eval D1008-A.M.100.B.1 R:0.15726 P:0.19118 F:0.17257
1 ROUGE-1 Eval D1009-A.M.100.B.1 R:0.17257 P:0.17727 F:0.17489
1 ROUGE-1 Eval D1010-A.M.100.B.1 R:0.25200 P:0.25820 F:0.25506
1 ROUGE-1 Eval D1011-A.M.100.C.1 R:0.21983 P:0.21983 F:0.21983
1 ROUGE-1 Eval D1012-A.M.100.C.1 R:0.23171 P:0.22266 F:0.22709
1 ROUGE-1 Eval D1013-A.M.100.C.1 R:0.31325 P:0.31967 F:0.31643
1 ROUGE-1 Eval D1014-A.M.100.C.1 R:0.22176 P:0.22083 F:0.22129
1 ROUGE-1 Eval D1015-A.M.100.C.1 R:0.27925 P:0.28906 F:0.28407
1 ROUGE-1 Eval D1016-A.M.100.C.1 R:0.33184 P:0.31356 F:0.32244
1 ROUGE-1 Eval D1017-A.M.100.D.1 R:0.20816 P:0.22768 F:0.21748
1 ROUGE-1 Eval D1018-A.M.100.D.1 R:0.28870 P:0.26136 F:0.27435
1 ROUGE-1 Eval D1019-A.M.100.D.1 R:0.36250 P:0.35656 F:0.35951
1 ROUGE-1 Eval D1020-A.M.100.D.1 R:0.22727 P:0.23707 F:0.23207
1 ROUGE-1 Eval D1021-A.M.100.D.1 R:0.28814 P:0.26562 F:0.27642
1 ROUGE-1 Eval D1022-A.M.100.D.1 R:0.35146 P:0.35000 F:0.35073
1 ROUGE-1 Eval D1023-A.M.100.E.1 R:0.21488 P:0.22807 F:0.22128
1 ROUGE-1 Eval D1024-A.M.100.E.1 R:0.34583 P:0.39904 F:0.37053
1 ROUGE-1 Eval D1025-A.M.100.E.1 R:0.23894 P:0.25000 F:0.24434
1 ROUGE-1 Eval D1026-A.M.100.E.1 R:0.26923 P:0.26695 F:0.26809
1 ROUGE-1 Eval D1027-A.M.100.E.1 R:0.40079 P:0.38258 F:0.39147
1 ROUGE-1 Eval D1028-A.M.100.E.1 R:0.31250 P:0.32895 F:0.32051
1 ROUGE-1 Eval D1029-A.M.100.F.1 R:0.17083 P:0.17083 F:0.17083
1 ROUGE-1 Eval D1030-A.M.100.F.1 R:0.23413 P:0.26818 F:0.25000
1 ROUGE-1 Eval D1031-A.M.100.F.1 R:0.23673 P:0.25439 F:0.24524
1 ROUGE-1 Eval D1032-A.M.100.F.1 R:0.32824 P:0.42157 F:0.36910
1 ROUGE-1 Eval D1033-A.M.100.F.1 R:0.36777 P:0.34231 F:0.35458
1 ROUGE-1 Eval D1034-A.M.100.F.1 R:0.09465 P:0.13068 F:0.10978
1 ROUGE-1 Eval D1035-A.M.100.G.1 R:0.24797 P:0.25417 F:0.25103
1 ROUGE-1 Eval D1036-A.M.100.G.1 R:0.23673 P:0.26364 F:0.24946
1 ROUGE-1 Eval D1037-A.M.100.G.1 R:0.20833 P:0.18750 F:0.19737
1 ROUGE-1 Eval D1038-A.M.100.G.1 R:0.21176 P:0.25962 F:0.23326
1 ROUGE-1 Eval D1039-A.M.100.G.1 R:0.28571 P:0.27344 F:0.27944
1 ROUGE-1 Eval D1040-A.M.100.G.1 R:0.23404 P:0.25463 F:0.24390
1 ROUGE-1 Eval D1041-A.M.100.H.1 R:0.24409 P:0.31633 F:0.27555
1 ROUGE-1 Eval D1042-A.M.100.H.1 R:0.22870 P:0.26020 F:0.24344
1 ROUGE-1 Eval D1043-A.M.100.H.1 R:0.37288 P:0.37288 F:0.37288
1 ROUGE-1 Eval D1044-A.M.100.H.1 R:0.30802 P:0.32589 F:0.31670
1 ROUGE-1 Eval D1045-A.M.100.H.1 R:0.29921 P:0.32203 F:0.31020
1 ROUGE-1 Eval D1046-A.M.100.H.1 R:0.25591 P:0.27083 F:0.26316
---------------------------------------------
1 ROUGE-2 Average_R: 0.07574 (95%-conf.int. 0.06438 - 0.08649)
1 ROUGE-2 Average_P: 0.07909 (95%-conf.int. 0.06767 - 0.08929)
1 ROUGE-2 Average_F: 0.07722 (95%-conf.int. 0.06599 - 0.08768)
.............................................
1 ROUGE-2 Eval D1001-A.M.100.A.1 R:0.11297 P:0.12500 F:0.11868
1 ROUGE-2 Eval D1002-A.M.100.A.1 R:0.03830 P:0.04787 F:0.04255
1 ROUGE-2 Eval D1003-A.M.100.A.1 R:0.04405 P:0.04630 F:0.04515
1 ROUGE-2 Eval D1004-A.M.100.A.1 R:0.11345 P:0.11842 F:0.11588
1 ROUGE-2 Eval D1005-A.M.100.A.1 R:0.04583 P:0.06111 F:0.05238
1 ROUGE-2 Eval D1006-A.M.100.A.1 R:0.07393 P:0.08636 F:0.07966
1 ROUGE-2 Eval D1007-A.M.100.B.1 R:0.05430 P:0.05455 F:0.05442
1 ROUGE-2 Eval D1008-A.M.100.B.1 R:0.03689 P:0.04500 F:0.04054
1 ROUGE-2 Eval D1009-A.M.100.B.1 R:0.04955 P:0.05093 F:0.05023
1 ROUGE-2 Eval D1010-A.M.100.B.1 R:0.09756 P:0.10000 F:0.09876
1 ROUGE-2 Eval D1011-A.M.100.C.1 R:0.08333 P:0.08333 F:0.08333
1 ROUGE-2 Eval D1012-A.M.100.C.1 R:0.04132 P:0.03968 F:0.04048
1 ROUGE-2 Eval D1013-A.M.100.C.1 R:0.13469 P:0.13750 F:0.13608
1 ROUGE-2 Eval D1014-A.M.100.C.1 R:0.02979 P:0.02966 F:0.02972
1 ROUGE-2 Eval D1015-A.M.100.C.1 R:0.09962 P:0.10317 F:0.10136
1 ROUGE-2 Eval D1016-A.M.100.C.1 R:0.06849 P:0.06466 F:0.06652
1 ROUGE-2 Eval D1017-A.M.100.D.1 R:0.03734 P:0.04091 F:0.03904
1 ROUGE-2 Eval D1018-A.M.100.D.1 R:0.11915 P:0.10769 F:0.11313
1 ROUGE-2 Eval D1019-A.M.100.D.1 R:0.06780 P:0.06667 F:0.06723
1 ROUGE-2 Eval D1020-A.M.100.D.1 R:0.04622 P:0.04825 F:0.04721
1 ROUGE-2 Eval D1021-A.M.100.D.1 R:0.12069 P:0.11111 F:0.11570
1 ROUGE-2 Eval D1022-A.M.100.D.1 R:0.14043 P:0.13983 F:0.14013
1 ROUGE-2 Eval D1023-A.M.100.E.1 R:0.00840 P:0.00893 F:0.00866
1 ROUGE-2 Eval D1024-A.M.100.E.1 R:0.10169 P:0.11765 F:0.10909
1 ROUGE-2 Eval D1025-A.M.100.E.1 R:0.09009 P:0.09434 F:0.09217
1 ROUGE-2 Eval D1026-A.M.100.E.1 R:0.10870 P:0.10776 F:0.10823
1 ROUGE-2 Eval D1027-A.M.100.E.1 R:0.13710 P:0.13077 F:0.13386
1 ROUGE-2 Eval D1028-A.M.100.E.1 R:0.08051 P:0.08482 F:0.08261
1 ROUGE-2 Eval D1029-A.M.100.F.1 R:0.02542 P:0.02542 F:0.02542
1 ROUGE-2 Eval D1030-A.M.100.F.1 R:0.08065 P:0.09259 F:0.08621
1 ROUGE-2 Eval D1031-A.M.100.F.1 R:0.05394 P:0.05804 F:0.05591
1 ROUGE-2 Eval D1032-A.M.100.F.1 R:0.06589 P:0.08500 F:0.07423
1 ROUGE-2 Eval D1033-A.M.100.F.1 R:0.14286 P:0.13281 F:0.13765
1 ROUGE-2 Eval D1034-A.M.100.F.1 R:0.00000 P:0.00000 F:0.00000
1 ROUGE-2 Eval D1035-A.M.100.G.1 R:0.05372 P:0.05508 F:0.05439
1 ROUGE-2 Eval D1036-A.M.100.G.1 R:0.02905 P:0.03241 F:0.03064
1 ROUGE-2 Eval D1037-A.M.100.G.1 R:0.04245 P:0.03814 F:0.04018
1 ROUGE-2 Eval D1038-A.M.100.G.1 R:0.06773 P:0.08333 F:0.07472
1 ROUGE-2 Eval D1039-A.M.100.G.1 R:0.12033 P:0.11508 F:0.11765
1 ROUGE-2 Eval D1040-A.M.100.G.1 R:0.04762 P:0.05189 F:0.04966
1 ROUGE-2 Eval D1041-A.M.100.H.1 R:0.05600 P:0.07292 F:0.06335
1 ROUGE-2 Eval D1042-A.M.100.H.1 R:0.07763 P:0.08854 F:0.08273
1 ROUGE-2 Eval D1043-A.M.100.H.1 R:0.17241 P:0.17241 F:0.17241
1 ROUGE-2 Eval D1044-A.M.100.H.1 R:0.10730 P:0.11364 F:0.11038
1 ROUGE-2 Eval D1045-A.M.100.H.1 R:0.09600 P:0.10345 F:0.09959
1 ROUGE-2 Eval D1046-A.M.100.H.1 R:0.06000 P:0.06356 F:0.06173
